<?xml version="1.0" encoding="UTF-8"?>
<svg width="38px" height="38px" viewBox="0 0 38 38" version="1.1" xmlns="http://www.w3.org/2000/svg" xmlns:xlink="http://www.w3.org/1999/xlink">
    <!-- Generator: Sketch 44.1 (41455) - http://www.bohemiancoding.com/sketch -->
    <title>Group 30</title>
    <desc>Created with Sketch.</desc>
    <defs>
        <circle id="path-1" cx="19" cy="19" r="19"></circle>
        <filter x="-1.3%" y="-1.3%" width="102.6%" height="102.6%" filterUnits="objectBoundingBox" id="filter-2">
            <feOffset dx="0" dy="1" in="SourceAlpha" result="shadowOffsetInner1"></feOffset>
            <feComposite in="shadowOffsetInner1" in2="SourceAlpha" operator="arithmetic" k2="-1" k3="1" result="shadowInnerInner1"></feComposite>
            <feColorMatrix values="0 0 0 0 0.987457483   0 0 0 0 0.987457483   0 0 0 0 0.987457483  0 0 0 1 0" type="matrix" in="shadowInnerInner1" result="shadowMatrixInner1"></feColorMatrix>
            <feOffset dx="0" dy="-1" in="SourceAlpha" result="shadowOffsetInner2"></feOffset>
            <feComposite in="shadowOffsetInner2" in2="SourceAlpha" operator="arithmetic" k2="-1" k3="1" result="shadowInnerInner2"></feComposite>
            <feColorMatrix values="0 0 0 0 0.917065264   0 0 0 0 0.917065264   0 0 0 0 0.917065264  0 0 0 1 0" type="matrix" in="shadowInnerInner2" result="shadowMatrixInner2"></feColorMatrix>
            <feMerge>
                <feMergeNode in="shadowMatrixInner1"></feMergeNode>
                <feMergeNode in="shadowMatrixInner2"></feMergeNode>
            </feMerge>
        </filter>
    </defs>
    <g id="Validé" stroke="none" stroke-width="1" fill="none" fill-rule="evenodd">
        <g id="Brief-Single-Elements-/-AJOUTER-DEBAT-" transform="translate(-1168.000000, -469.000000)">
            <g id="Group-2" transform="translate(1168.000000, 1.000000)">
                <g id="Group-19" transform="translate(0.000000, 468.000000)">
                    <g id="Group-30">
                        <g id="Oval-3">
                            <use fill="#FFFFFF" fill-rule="evenodd" xlink:href="#path-1"></use>
                            <use fill="black" fill-opacity="1" filter="url(#filter-2)" xlink:href="#path-1"></use>
                        </g>
                        <path d="M9.06574739,19.2786731 C8.94812182,18.9932159 8.98663493,18.6439592 9.19492964,18.4144087 L13.9172327,13.2045032 C14.1747463,12.9205669 14.5806849,12.9340633 14.8245418,13.2339775 C15.0679457,13.5343399 15.0567871,14.0078498 14.7992735,14.2922983 L10.5621451,18.9677761 L14.7825562,23.712641 C15.0375168,23.9996031 15.0452304,24.473113 14.7992735,24.7709619 C14.6734952,24.9236966 14.5054155,25 14.3372672,25 C14.1768874,25 14.0164527,24.9301807 13.8919782,24.7904619 L9.21248426,19.5296128 C9.20348048,19.5191904 9.20007661,19.5047014 9.19107283,19.4937666 C9.18421019,19.4862099 9.17697698,19.4807505 9.17012807,19.4727455 C9.13375611,19.42835 9.11449954,19.3739802 9.08969798,19.3230526 C9.0828628,19.307587 9.0717316,19.294651 9.06574739,19.2786731 Z" id="el-icon-arrow-left" fill="#2DA3FF"></path>
                        <path d="M23.0657474,19.2786731 C22.9481218,18.9932159 22.9866349,18.6439592 23.1949296,18.4144087 L27.9172327,13.2045032 C28.1747463,12.9205669 28.5806849,12.9340633 28.8245418,13.2339775 C29.0679457,13.5343399 29.0567871,14.0078498 28.7992735,14.2922983 L24.5621451,18.9677761 L28.7825562,23.712641 C29.0375168,23.9996031 29.0452304,24.473113 28.7992735,24.7709619 C28.6734952,24.9236966 28.5054155,25 28.3372672,25 C28.1768874,25 28.0164527,24.9301807 27.8919782,24.7904619 L23.2124843,19.5296128 C23.2034805,19.5191904 23.2000766,19.5047014 23.1910728,19.4937666 C23.1842102,19.4862099 23.176977,19.4807505 23.1701281,19.4727455 C23.1337561,19.42835 23.1144995,19.3739802 23.089698,19.3230526 C23.0828628,19.307587 23.0717316,19.294651 23.0657474,19.2786731 Z" id="el-icon-arrow-right" fill="#2DA3FF" transform="translate(26.000000, 19.000000) scale(-1, 1) translate(-26.000000, -19.000000) "></path>
                    </g>
                </g>
            </g>
        </g>
    </g>
</svg>