<?xml version="1.0" encoding="UTF-8"?>
<svg width="21px" height="21px" viewBox="0 0 21 21" version="1.1" xmlns="http://www.w3.org/2000/svg" xmlns:xlink="http://www.w3.org/1999/xlink">
    <!-- Generator: Sketch 44.1 (41455) - http://www.bohemiancoding.com/sketch -->
    <title>Group 29</title>
    <desc>Created with Sketch.</desc>
    <defs></defs>
    <g id="Validé" stroke="none" stroke-width="1" fill="none" fill-rule="evenodd" stroke-linecap="round">
        <g id="Brief-Single-Elements-/-AJOUTER-DEBAT-" transform="translate(-1881.000000, -18.000000)" stroke-width="2" stroke="#2DA3FF">
            <g id="Group-2" transform="translate(1168.000000, 1.000000)">
                <g id="Group-18" transform="translate(19.000000, 0.000000)">
                    <g id="Group-9" transform="translate(695.000000, 18.000000)">
                        <g id="Group-29">
                            <path d="M0.256756757,0.256756757 L18.5856647,18.5856647" id="Line"></path>
                            <path d="M0.256756757,0.256756757 L18.5856647,18.5856647" id="Line" transform="translate(9.500000, 9.500000) scale(-1, 1) translate(-9.500000, -9.500000) "></path>
                        </g>
                    </g>
                </g>
            </g>
        </g>
    </g>
</svg>