<?xml version="1.0" encoding="UTF-8"?>
<svg width="38px" height="23px" viewBox="0 0 38 23" version="1.1" xmlns="http://www.w3.org/2000/svg" xmlns:xlink="http://www.w3.org/1999/xlink">
    <!-- Generator: Sketch 47 (45396) - http://www.bohemiancoding.com/sketch -->
    <title>Group 12@3x</title>
    <desc>Created with Sketch.</desc>
    <defs></defs>
    <g id="Validé" stroke="none" stroke-width="1" fill="none" fill-rule="evenodd">
        <g id="Changement-de-projet" transform="translate(-249.000000, -754.000000)">
            <g id="Group-12" transform="translate(249.000000, 754.000000)">
                <g id="Group-11" transform="translate(0.000000, 6.000000)">
                    <path d="M7.34120425,0 C4.78334045,0.000186728395 2.62585464,0.140008951 2.30412166,0.326475926 C1.74073129,0.516640124 1.31836734,1.78400309 1.31765204,3.28641976 L1.31765204,4.03333334 L1.16390087,4.03333334 C1.14759964,3.9982284 1.12678073,3.96663395 1.10227241,3.93981976 C1.16725148,3.8690497 1.20455985,3.76709599 1.20471044,3.65987655 L1.20471044,3.28641976 C1.20471044,3.08015957 1.06985817,2.91300031 0.90353283,2.91296297 L0.30117761,2.91296297 C0.134852275,2.91300031 0,3.08015957 0,3.28641976 L0,3.65987655 C7.52944025e-05,3.76720803 0.0373836708,3.86927377 0.102438035,3.94011852 C0.0374589653,4.01088858 0.000150588805,4.11284229 0,4.22006173 L0,6.08734569 C0,6.29360587 0.134852275,6.46076513 0.30117761,6.46080248 L0.90353283,6.46080248 C1.01097794,6.46061575 1.11025361,6.38947223 1.16397617,6.27407408 L1.31765204,6.27407408 L1.31765204,9.6351852 C1.31795322,9.76843458 1.46142671,9.89152594 1.69412406,9.95815063 L1.69412406,10.3942735 C1.36192515,10.4368102 1.12971722,10.5853713 1.12941604,10.7555556 L1.12941604,14.4901235 C1.12971722,15.023233 1.2731907,15.5156358 1.50588805,15.7822093 L1.50588805,16.4239574 C1.50588805,16.5934695 1.64442975,16.7309016 1.8153104,16.7309016 L3.07882577,16.7309016 C3.24970641,16.7309016 3.38824811,16.5934695 3.38824811,16.4239574 L3.38824811,15.9839506 L11.2941604,15.9839506 L11.2941604,16.4239201 C11.2941604,16.5934321 11.4327021,16.7308642 11.6035827,16.7308642 L12.8670981,16.7308642 C13.0379787,16.7308642 13.1765204,16.5934321 13.1765204,16.4239201 L13.1765204,15.7816864 C13.4091425,15.515225 13.552616,15.0230463 13.5529925,14.4901235 L13.5529925,10.7555556 C13.5525783,10.585446 13.3203704,10.4369596 12.9882844,10.3944229 L12.9882844,9.95807594 C13.2209441,9.89145124 13.36438,9.76839723 13.3647564,9.6351852 L13.3647564,6.27407408 L13.5184323,6.27407408 C13.5721549,6.38947223 13.6714305,6.46061575 13.7788757,6.46080248 L14.3812309,6.46080248 C14.5475562,6.46076513 14.6824085,6.29360587 14.6824085,6.08734569 L14.6824085,4.22006173 C14.6822579,4.11284229 14.6449495,4.01088858 14.5799705,3.94011852 C14.6449872,3.86927377 14.6822955,3.76720803 14.6824085,3.65987655 L14.6824085,3.28641976 C14.6824085,3.08015957 14.5475562,2.91300031 14.3812309,2.91296297 L13.7788757,2.91296297 C13.6125503,2.91300031 13.4776981,3.08015957 13.4776981,3.28641976 L13.4776981,3.65987655 C13.4778486,3.76709599 13.515157,3.8690497 13.5801361,3.93981976 C13.5556278,3.96663395 13.5348465,3.9982284 13.5185076,4.03333334 L13.3647188,4.03333334 L13.3647188,3.28641976 C13.3642294,1.77574969 12.9375737,0.503718519 12.3706068,0.322778704 C12.0260973,0.137992284 9.87922797,0.000224074074 7.34120425,0 Z M2.63526644,10.3820988 L3.44197067,10.3820988 C3.54196164,10.3820614 3.62452195,10.4595911 3.62998079,10.5586318 L3.7643813,12.9861009 C3.77029191,13.093059 3.68441865,13.1830247 3.57644647,13.1830247 L2.63526644,13.1830247 C2.53132252,13.1830247 2.44703043,13.0994077 2.44703043,12.9962963 L2.44703043,10.5688272 C2.44706808,10.4657158 2.53136017,10.3820988 2.63526644,10.3820988 L2.63526644,10.3820988 Z M11.2404002,10.3820988 L12.0470668,10.3820988 C12.1510107,10.3820988 12.2353028,10.4657158 12.2353028,10.5688272 L12.2353028,12.9962963 C12.2353028,13.0994077 12.1510107,13.1830247 12.0470668,13.1830247 L11.1058867,13.1830247 C10.9978769,13.1830247 10.9120413,13.093059 10.9179519,12.9861009 L11.0523524,10.5586318 C11.0578489,10.4595911 11.1404092,10.3820988 11.2404002,10.3820988 Z M4.23527249,10.8302469 L10.4470607,10.8302469 C10.4990515,10.8302469 10.5411787,10.8720367 10.5411787,10.9236111 L10.5411787,11.0356482 C10.5411787,11.0872225 10.4990515,11.1290124 10.4470607,11.1290124 L4.23527249,11.1290124 C4.18328171,11.1290124 4.14115449,11.0872225 4.14115449,11.0356482 L4.14115449,10.9236111 C4.14119214,10.8720741 4.18331936,10.8302469 4.23527249,10.8302469 L4.23527249,10.8302469 Z M4.2729197,11.5024691 L10.4094135,11.5024691 C10.4614043,11.5024691 10.5035315,11.544259 10.5035315,11.5958333 L10.5035315,11.7078704 C10.5035315,11.7594448 10.4614043,11.8012346 10.4094135,11.8012346 L4.2729197,11.8012346 C4.22092891,11.8012346 4.17880169,11.7594448 4.17880169,11.7078704 L4.17880169,11.5958333 C4.17883934,11.5442963 4.22096656,11.5024691 4.2729197,11.5024691 L4.2729197,11.5024691 Z M4.3105669,12.1746914 L10.3717663,12.1746914 C10.4237571,12.1746914 10.4658843,12.2164812 10.4658843,12.2680556 L10.4658843,12.3800926 C10.4658843,12.431667 10.4237571,12.4734568 10.3717663,12.4734568 L4.3105669,12.4734568 C4.25857611,12.4734568 4.21644889,12.431667 4.21644889,12.3800926 L4.21644889,12.2680556 C4.21648654,12.2165185 4.25861376,12.1746914 4.3105669,12.1746914 L4.3105669,12.1746914 Z M4.3482141,12.8469136 L10.3341191,12.8469136 C10.3861099,12.8469136 10.4282371,12.8887034 10.4282371,12.9402778 L10.4282371,13.0523148 C10.4282371,13.1038892 10.3861099,13.145679 10.3341191,13.145679 L4.3482141,13.145679 C4.29622331,13.145679 4.25409609,13.1038892 4.25409609,13.0523148 L4.25409609,12.9402778 C4.25413374,12.8887408 4.29626096,12.8469136 4.3482141,12.8469136 L4.3482141,12.8469136 Z" id="rect4534-copy" fill="#0C6DB8" fill-rule="nonzero"></path>
                    <path d="M2.17762706,2.16604938 L2.77328108,2.16604938 L4.07116834,2.16604938 L10.6106001,2.16604938 L11.9090521,2.16604938 L12.5041414,2.16604938 C12.6839445,2.16608673 12.8386745,2.29220309 12.8734981,2.46720494 C12.9492066,2.84775741 12.987795,3.25878395 12.9882844,3.67567377 L12.9882844,3.67612192 L12.9882844,6.27407408 C12.9882468,6.48033427 12.8197379,6.64749353 12.6118124,6.64753087 L11.5576908,6.64753087 L3.1247177,6.64753087 L2.07059607,6.64753087 C1.86267058,6.64749353 1.6941617,6.48033427 1.69412406,6.27407408 L1.69412406,3.67615926 L1.69412406,3.6758605 C1.69438759,3.25908272 1.73275009,2.84809352 1.80823272,2.46746636 C1.84294344,2.29231513 1.99771109,2.16604938 2.17762706,2.16604938 Z" id="rect4534-path" fill="#FFFFFF"></path>
                    <path d="M30.4392435,0 C27.8813797,0.000186728395 25.7238939,0.140008951 25.4021609,0.326475926 C24.8387705,0.516640124 24.4164066,1.78400309 24.4156913,3.28641976 L24.4156913,4.03333334 L24.2619401,4.03333334 C24.2456389,3.9982284 24.2248199,3.96663395 24.2003116,3.93981976 C24.2652907,3.8690497 24.3025991,3.76709599 24.3027497,3.65987655 L24.3027497,3.28641976 C24.3027497,3.08015957 24.1678974,2.91300031 24.001572,2.91296297 L23.3992168,2.91296297 C23.2328915,2.91300031 23.0980392,3.08015957 23.0980392,3.28641976 L23.0980392,3.65987655 C23.0981145,3.76720803 23.1354229,3.86927377 23.2004773,3.94011852 C23.1354982,4.01088858 23.0981898,4.11284229 23.0980392,4.22006173 L23.0980392,6.08734569 C23.0980392,6.29360587 23.2328915,6.46076513 23.3992168,6.46080248 L24.001572,6.46080248 C24.1090172,6.46061575 24.2082928,6.38947223 24.2620154,6.27407408 L24.4156913,6.27407408 L24.4156913,9.6351852 C24.4159924,9.76843458 24.5594659,9.89152594 24.7921633,9.95815063 L24.7921633,10.3942735 C24.4599644,10.4368102 24.2277564,10.5853713 24.2274553,10.7555556 L24.2274553,14.4901235 C24.2277564,15.023233 24.3712299,15.5156358 24.6039273,15.7822093 L24.6039273,16.4239574 C24.6039273,16.5934695 24.742469,16.7309016 24.9133496,16.7309016 L26.176865,16.7309016 C26.3477456,16.7309016 26.4862873,16.5934695 26.4862873,16.4239574 L26.4862873,15.9839506 L34.3921996,15.9839506 L34.3921996,16.4239201 C34.3921996,16.5934321 34.5307413,16.7308642 34.7016219,16.7308642 L35.9651373,16.7308642 C36.136018,16.7308642 36.2745597,16.5934321 36.2745597,16.4239201 L36.2745597,15.7816864 C36.5071817,15.515225 36.6506552,15.0230463 36.6510317,14.4901235 L36.6510317,10.7555556 C36.6506175,10.585446 36.4184096,10.4369596 36.0863236,10.3944229 L36.0863236,9.95807594 C36.3189834,9.89145124 36.4624192,9.76839723 36.4627957,9.6351852 L36.4627957,6.27407408 L36.6164715,6.27407408 C36.6701941,6.38947223 36.7694698,6.46061575 36.8769149,6.46080248 L37.4792701,6.46080248 C37.6455954,6.46076513 37.7804477,6.29360587 37.7804477,6.08734569 L37.7804477,4.22006173 C37.7802971,4.11284229 37.7429887,4.01088858 37.6780097,3.94011852 C37.7430264,3.86927377 37.7803348,3.76720803 37.7804477,3.65987655 L37.7804477,3.28641976 C37.7804477,3.08015957 37.6455954,2.91300031 37.4792701,2.91296297 L36.8769149,2.91296297 C36.7105895,2.91300031 36.5757373,3.08015957 36.5757373,3.28641976 L36.5757373,3.65987655 C36.5758879,3.76709599 36.6131962,3.8690497 36.6781753,3.93981976 C36.653667,3.96663395 36.6328857,3.9982284 36.6165468,4.03333334 L36.462758,4.03333334 L36.462758,3.28641976 C36.4622686,1.77574969 36.0356129,0.503718519 35.468646,0.322778704 C35.1241365,0.137992284 32.9772672,0.000224074074 30.4392435,0 Z M25.7333057,10.3820988 L26.5400099,10.3820988 C26.6400009,10.3820614 26.7225612,10.4595911 26.72802,10.5586318 L26.8624205,12.9861009 C26.8683311,13.093059 26.7824579,13.1830247 26.6744857,13.1830247 L25.7333057,13.1830247 C25.6293617,13.1830247 25.5450697,13.0994077 25.5450697,12.9962963 L25.5450697,10.5688272 C25.5451073,10.4657158 25.6293994,10.3820988 25.7333057,10.3820988 L25.7333057,10.3820988 Z M34.3384394,10.3820988 L35.145106,10.3820988 C35.2490499,10.3820988 35.333342,10.4657158 35.333342,10.5688272 L35.333342,12.9962963 C35.333342,13.0994077 35.2490499,13.1830247 35.145106,13.1830247 L34.2039259,13.1830247 C34.0959161,13.1830247 34.0100805,13.093059 34.0159911,12.9861009 L34.1503916,10.5586318 C34.1558881,10.4595911 34.2384484,10.3820988 34.3384394,10.3820988 Z M27.3333117,10.8302469 L33.5450999,10.8302469 C33.5970907,10.8302469 33.6392179,10.8720367 33.6392179,10.9236111 L33.6392179,11.0356482 C33.6392179,11.0872225 33.5970907,11.1290124 33.5450999,11.1290124 L27.3333117,11.1290124 C27.2813209,11.1290124 27.2391937,11.0872225 27.2391937,11.0356482 L27.2391937,10.9236111 C27.2392314,10.8720741 27.2813586,10.8302469 27.3333117,10.8302469 L27.3333117,10.8302469 Z M27.3709589,11.5024691 L33.5074527,11.5024691 C33.5594435,11.5024691 33.6015707,11.544259 33.6015707,11.5958333 L33.6015707,11.7078704 C33.6015707,11.7594448 33.5594435,11.8012346 33.5074527,11.8012346 L27.3709589,11.8012346 C27.3189681,11.8012346 27.2768409,11.7594448 27.2768409,11.7078704 L27.2768409,11.5958333 C27.2768786,11.5442963 27.3190058,11.5024691 27.3709589,11.5024691 L27.3709589,11.5024691 Z M27.4086061,12.1746914 L33.4698055,12.1746914 C33.5217963,12.1746914 33.5639235,12.2164812 33.5639235,12.2680556 L33.5639235,12.3800926 C33.5639235,12.431667 33.5217963,12.4734568 33.4698055,12.4734568 L27.4086061,12.4734568 C27.3566153,12.4734568 27.3144881,12.431667 27.3144881,12.3800926 L27.3144881,12.2680556 C27.3145258,12.2165185 27.356653,12.1746914 27.4086061,12.1746914 L27.4086061,12.1746914 Z M27.4462533,12.8469136 L33.4321583,12.8469136 C33.4841491,12.8469136 33.5262763,12.8887034 33.5262763,12.9402778 L33.5262763,13.0523148 C33.5262763,13.1038892 33.4841491,13.145679 33.4321583,13.145679 L27.4462533,13.145679 C27.3942625,13.145679 27.3521353,13.1038892 27.3521353,13.0523148 L27.3521353,12.9402778 C27.352173,12.8887408 27.3943002,12.8469136 27.4462533,12.8469136 L27.4462533,12.8469136 Z" id="rect4534-copy-2" fill="#0C6DB8" fill-rule="nonzero"></path>
                    <path d="M25.2756663,2.16604938 L25.8713203,2.16604938 L27.1692076,2.16604938 L33.7086394,2.16604938 L35.0070913,2.16604938 L35.6021806,2.16604938 C35.7819837,2.16608673 35.9367137,2.29220309 35.9715373,2.46720494 C36.0472459,2.84775741 36.0858342,3.25878395 36.0863236,3.67567377 L36.0863236,3.67612192 L36.0863236,6.27407408 C36.086286,6.48033427 35.9177771,6.64749353 35.7098516,6.64753087 L34.65573,6.64753087 L26.2227569,6.64753087 L25.1686353,6.64753087 C24.9607098,6.64749353 24.7922009,6.48033427 24.7921633,6.27407408 L24.7921633,3.67615926 L24.7921633,3.6758605 C24.7924268,3.25908272 24.8307893,2.84809352 24.9062719,2.46746636 C24.9409827,2.29231513 25.0957503,2.16604938 25.2756663,2.16604938 Z" id="rect4534-path" fill="#FFFFFF"></path>
                </g>
                <g id="Group-8" transform="translate(9.000000, 0.000000)">
                    <g id="truck-front" fill-rule="nonzero" fill="#2DA3FF">
                        <path d="M9.49963462,0 C6.18971834,0.000244435043 3.39789751,0.183277395 2.98156994,0.427370229 C2.25253387,0.676302876 1.70598823,2.3353324 1.70506262,4.30205675 L1.70506262,5.27979692 L1.50610617,5.27979692 C1.48501211,5.23384314 1.45807212,5.19248473 1.42635796,5.15738385 C1.5104419,5.06474297 1.55871953,4.93128144 1.5589144,4.79092684 L1.5589144,4.30205675 C1.5589144,4.0320538 1.38441342,3.81323555 1.1691858,3.81318667 L0.3897286,3.81318667 C0.17450098,3.81323555 0,4.0320538 0,4.30205675 L0,4.79092684 C9.74321499e-05,4.9314281 0.0483750624,5.06503629 0.13255644,5.15777495 C0.0484724946,5.25041583 0.0001948643,5.38387736 0,5.52423197 L0,7.96858239 C0,8.23858534 0.17450098,8.45740359 0.3897286,8.45745248 L1.1691858,8.45745248 C1.30822148,8.45720804 1.43668577,8.36407829 1.50620361,8.21301744 L1.70506262,8.21301744 L1.70506262,12.6128482 C1.70545235,12.7872771 1.89110931,12.9484086 2.19222337,13.0356231 L2.19222337,13.6065255 C1.76235273,13.6622078 1.46187198,13.8566804 1.46148225,14.0794585 L1.46148225,18.9681593 C1.46187198,19.6660214 1.64752894,20.3105966 1.948643,20.659552 L1.948643,21.4996264 C1.948643,21.7215245 2.12791815,21.9014287 2.34904042,21.9014287 L3.98404933,21.9014287 C4.20517159,21.9014287 4.38444675,21.7215245 4.38444675,21.4996264 L4.38444675,20.9236397 L14.6148225,20.9236397 L14.6148225,21.4995775 C14.6148225,21.7214756 14.7940976,21.9013798 15.0152199,21.9013798 L16.6502288,21.9013798 C16.8713511,21.9013798 17.0506262,21.7214756 17.0506262,21.4995775 L17.0506262,20.6588676 C17.3516429,20.3100588 17.5372998,19.6657769 17.537787,18.9681593 L17.537787,14.0794585 C17.5372511,13.8567781 17.2367704,13.6624034 16.8070459,13.6067211 L16.8070459,13.0355253 C17.1081112,12.9483109 17.2937194,12.7872282 17.2942066,12.6128482 L17.2942066,8.21301744 L17.4930656,8.21301744 C17.5625835,8.36407829 17.6910478,8.45720804 17.8300834,8.45745248 L18.6095406,8.45745248 C18.8247683,8.45740359 18.9992692,8.23858534 18.9992692,7.96858239 L18.9992692,5.52423197 C18.9990744,5.38387736 18.9507967,5.25041583 18.8667128,5.15777495 C18.9508455,5.06503629 18.9991231,4.9314281 18.9992692,4.79092684 L18.9992692,4.30205675 C18.9992692,4.0320538 18.8247683,3.81323555 18.6095406,3.81318667 L17.8300834,3.81318667 C17.6148558,3.81323555 17.4403548,4.0320538 17.4403548,4.30205675 L17.4403548,4.79092684 C17.4405497,4.93128144 17.4888273,5.06474297 17.5729113,5.15738385 C17.5411971,5.19248473 17.5143058,5.23384314 17.4931631,5.27979692 L17.2941579,5.27979692 L17.2941579,4.30205675 C17.2935246,2.32452837 16.7414253,0.659387971 16.0077612,0.422530415 C15.5619604,0.180637497 12.7838775,0.000293322051 9.49963462,0 Z M5.48050972,14.1772325 L13.5186621,14.1772325 C13.585939,14.1772325 13.6404523,14.231937 13.6404523,14.29945 L13.6404523,14.446111 C13.6404523,14.513624 13.585939,14.5683285 13.5186621,14.5683285 L5.48050972,14.5683285 C5.41323282,14.5683285 5.35871953,14.513624 5.35871953,14.446111 L5.35871953,14.29945 C5.35876824,14.2319859 5.41328153,14.1772325 5.48050972,14.1772325 L5.48050972,14.1772325 Z M5.52922579,15.0571986 L13.469946,15.0571986 C13.5372229,15.0571986 13.5917362,15.1119032 13.5917362,15.1794162 L13.5917362,15.3260772 C13.5917362,15.3935901 13.5372229,15.4482947 13.469946,15.4482947 L5.52922579,15.4482947 C5.46194889,15.4482947 5.4074356,15.3935901 5.4074356,15.3260772 L5.4074356,15.1794162 C5.40748432,15.1119521 5.46199761,15.0571986 5.52922579,15.0571986 L5.52922579,15.0571986 Z M5.57794187,15.9371648 L13.4212299,15.9371648 C13.4885068,15.9371648 13.5430201,15.9918693 13.5430201,16.0593823 L13.5430201,16.2060433 C13.5430201,16.2735563 13.4885068,16.3282609 13.4212299,16.3282609 L5.57794187,16.3282609 C5.51066497,16.3282609 5.45615168,16.2735563 5.45615168,16.2060433 L5.45615168,16.0593823 C5.45620039,15.9919182 5.51071368,15.9371648 5.57794187,15.9371648 L5.57794187,15.9371648 Z M5.62665794,16.8171309 L13.3725139,16.8171309 C13.4397908,16.8171309 13.494304,16.8718355 13.494304,16.9393485 L13.494304,17.0860095 C13.494304,17.1535224 13.4397908,17.208227 13.3725139,17.208227 L5.62665794,17.208227 C5.55938104,17.208227 5.50486775,17.1535224 5.50486775,17.0860095 L5.50486775,16.9393485 C5.50491647,16.8718844 5.55942976,16.8171309 5.62665794,16.8171309 L5.62665794,16.8171309 Z" id="rect4534"></path>
                    </g>
                    <g id="Group-4" transform="translate(2.192308, 2.200000)">
                        <path d="M1.21776884,11.3905884 L2.26165689,11.3905884 C2.39104679,11.3905395 2.49788114,11.4920289 2.50494497,11.6216773 L2.67886136,14.7993328 C2.68650978,14.9393452 2.57538841,15.057114 2.43567071,15.057114 L1.21776884,15.057114 C1.08326376,15.057114 0.974188463,14.947656 0.974188463,14.812679 L0.974188463,11.6350234 C0.974237179,11.5000464 1.08331247,11.3905884 1.21776884,11.3905884 L1.21776884,11.3905884 Z" id="rect4534-path" fill="#0F88E6"></path>
                        <path d="M12.3529482,11.3905884 L13.3967876,11.3905884 C13.5312927,11.3905884 13.640368,11.5000464 13.640368,11.6350234 L13.640368,14.812679 C13.640368,14.947656 13.5312927,15.057114 13.3967876,15.057114 L12.1788857,15.057114 C12.0391193,15.057114 11.9280466,14.9393452 11.9356951,14.7993328 L12.1096114,11.6216773 C12.116724,11.4920289 12.2235583,11.3905884 12.3529482,11.3905884 Z" id="rect4534-path" fill="#0F88E6"></path>
                        <path d="M0.625576231,0.635446496 L1.39636197,0.635446496 L3.07584865,0.635446496 L11.537977,0.635446496 L13.2181944,0.635446496 L13.9882494,0.635446496 C14.2209174,0.635495383 14.4211405,0.800586811 14.4662029,1.02967133 C14.5641709,1.52782995 14.6141049,2.06588037 14.6147382,2.61160604 L14.6147382,2.61219269 L14.6147382,6.01301744 C14.6146894,6.28302038 14.3966363,6.50183863 14.1275774,6.50188752 L12.7635273,6.50188752 L1.85112653,6.50188752 L0.48707643,6.50188752 C0.218017548,6.50183863 -3.56034528e-05,6.28302038 -8.43195278e-05,6.01301744 L-8.43195278e-05,2.61224157 L-8.43195278e-05,2.61185048 C0.000256692997,2.06627146 0.0498983734,1.52826993 0.147574104,1.03001354 C0.192490325,0.800733472 0.392762109,0.635446496 0.625576231,0.635446496 Z" id="rect4534-path" fill="#FFFFFF"></path>
                    </g>
                </g>
            </g>
        </g>
    </g>
</svg>