<svg xmlns="http://www.w3.org/2000/svg" width="99" height="126" viewBox="0 0 99 126">
  <g>
    <path d="M68.2762979,0 L0,0 L0,126 L99,126 L99,30.6306 L68.2762979,0 Z M69.8210526,7.2295082 L91.7052632,29.9508197 L69.8210526,29.9508197 L69.8210526,7.2295082 Z M4.16842105,121.868852 L4.16842105,4.13114754 L65.3133415,4.13114754 L65.3133415,33.5655738 L94.8315789,33.5655738 L94.8315789,121.868852 L4.16842105,121.868852 Z"/>
    <g transform="translate(20 46)">
      <path d="M13.2709097 39.316187C13.4832353 39.1044811 13.5892122 38.8330315 13.5892122 38.5027059 13.5892122 38.1726282 13.4832353 37.9011786 13.2709097 37.6882332 13.0584601 37.4766513 12.7868866 37.3706744 12.4569328 37.3706744L1.13227941 37.3706744C.801829832 37.3706744.530752101 37.4766513.318302521 37.6882332.106472689 37.9003109 0 38.1717605 0 38.5027059 0 38.8330315.105976891 39.1044811.318302521 39.316187.530752101 39.5282647.80232563 39.6342416 1.13227941 39.6342416L12.4569328 39.6342416C12.7873824 39.6348613 13.0584601 39.5287605 13.2709097 39.316187zM38.502334 13.5890882C38.8331555 13.5890882 39.104605 13.4831113 39.3158151 13.2707857 39.5287605 13.058708 39.6348613 12.7872584 39.6348613 12.4568088L39.6348613 1.13265126C39.6348613.803069328 39.5287605.531495798 39.3158151.318922269 39.104605.106844538 38.8330315.000371848739 38.502334.000371848739 38.1723803.000371848739 37.9008067.106844538 37.6888529.318922269 37.4767752.531247899 37.3707983.802697479 37.3707983 1.13265126L37.3707983 12.4568088C37.3707983 12.7872584 37.4767752 13.058708 37.6888529 13.2707857 37.9017983 13.4831113 38.1732479 13.5890882 38.502334 13.5890882zM14.7216155 43.0333109C14.4144685 43.0333109 14.1435147 43.1392878 13.9076387 43.3509937L4.84828782 52.4100966C4.63596218 52.6458487 4.52998529 52.9174223 4.52998529 53.2240735 4.52998529 53.5307248 4.63596218 53.8021744 4.84828782 54.0379265 5.10808613 54.2496324 5.37916387 54.3564769 5.66226471 54.3564769 5.96903992 54.3564769 6.2404895 54.2496324 6.4762416 54.0379265L15.5355924 44.9788235C15.748042 44.7430714 15.853895 44.4714979 15.853895 44.1644748 15.853895 43.8581954 15.748042 43.5867458 15.5355924 43.3509937 15.2998403 43.1392878 15.0282668 43.0333109 14.7216155 43.0333109zM44.1650945 15.853771C44.4480714 15.853771 44.719521 15.7477941 44.9795672 15.5358403L54.0386702 6.4764895C54.2502521 6.24061345 54.356229 5.96916387 54.356229 5.66251261 54.356229 5.35573739 54.2502521 5.08428782 54.0386702 4.84853571 53.8019265 4.63670588 53.5313445 4.53023319 53.2241975 4.53023319 52.9179181 4.53023319 52.6465924 4.63670588 52.4107164 4.84853571L43.3516134 13.9078866C43.1399076 14.1437626 43.033063 14.4152122 43.033063 14.7218634 43.033063 15.0285147 43.1399076 15.2995924 43.3516134 15.5358403 43.6111639 15.7477941 43.8827374 15.853771 44.1650945 15.853771zM43.4575903 23.9228887C42.961792 23.4272143 42.3013887 22.9320357 41.4758845 22.4366092L40.8387836 30.8946807 50.5353592 40.6257143C51.1957626 41.2861176 51.5253445 42.089187 51.5253445 43.0324433 51.5253445 43.952521 51.1953908 44.7431954 50.5353592 45.4035987L45.3323277 50.5705609C44.6944832 51.2084055 43.893521 51.5207584 42.9255987 51.5083634 41.9575525 51.4959685 41.1567143 51.1728319 40.5196134 50.5348634L30.8582395 40.8389076 22.4006639 41.4765042C22.8963382 42.3015126 23.3913929 42.9624118 23.8869433 43.4578382L35.7070231 55.3127479C37.6657983 57.3182521 40.070916 58.3210042 42.9255987 58.3210042 45.7573508 58.3210042 48.1505693 57.3420504 50.1093445 55.3840189L55.3123761 50.2171807C57.3170126 48.2587773 58.3206324 45.8646912 58.3206324 43.0333109 58.3206324 40.2494034 57.3297794 37.8426744 55.3480735 35.8134958L43.4575903 23.9228887zM58.5684076 19.5702752C58.3563298 19.3584454 58.0848803 19.2523445 57.7549265 19.2523445L46.4302731 19.2523445C46.1003193 19.2523445 45.8287458 19.3583214 45.616792 19.5702752 45.4042185 19.7826008 45.2982416 20.0540504 45.2982416 20.3842521 45.2982416 20.7147017 45.4042185 20.9861513 45.616792 21.198229 45.8288697 21.4104307 46.1003193 21.5165315 46.4302731 21.5165315L57.7549265 21.5165315C58.0848803 21.5165315 58.3564538 21.4104307 58.5684076 21.198229 58.7801134 20.9861513 58.8860903 20.7147017 58.8860903 20.3842521 58.8862143 20.0540504 58.7801134 19.7826008 58.5684076 19.5702752zM13.5536387 8.31689286C14.2382122 7.67979202 15.0399181 7.36186134 15.9603676 7.36186134 16.9037479 7.36186134 17.7060735 7.69193908 18.3667248 8.35259034L28.0277269 18.0487941 36.4853025 17.4114454C35.9895042 16.5858172 35.4949454 15.925166 34.9990231 15.4298634L23.1794391 3.57495378C21.2212836 1.56969748 18.8149265.566697479 15.9603676.566697479 13.1292353.566697479 10.7346534 1.54614706 8.7764979 3.50430252L3.57433403 8.67089286C1.56907773 10.6294202.56644958 13.0237542.56644958 15.8546387.56644958 18.6389181 1.55755042 21.0452752 3.5390084 23.0740819L15.4294916 34.9645651C15.9246702 35.4604874 16.5853214 35.955542 17.4109496 36.4508445L18.0479265 27.9576954 8.35135084 18.2614916C7.69107143 17.6008403 7.3607458 16.7987626 7.3607458 15.8547626 7.3607458 14.9349328 7.69069958 14.1447542 8.35135084 13.4841029L13.5536387 8.31689286zM20.3840042 45.2974979C20.0534307 45.2974979 19.7823529 45.4034748 19.5700273 45.6151807 19.3579496 45.8272584 19.2517248 46.098708 19.2517248 46.4295294L19.2517248 57.7533151C19.2517248 58.0841366 19.3575777 58.3548424 19.5700273 58.5676639 19.7823529 58.7792458 20.0534307 58.8857185 20.3840042 58.8857185 20.7144538 58.8857185 20.9855315 58.7792458 21.1979811 58.5676639 21.4103067 58.3547185 21.5162836 58.0841366 21.5162836 57.7533151L21.5162836 46.4295294C21.5162836 46.0995756 21.4103067 45.8280021 21.1979811 45.6151807 20.9854076 45.4035987 20.713958 45.2974979 20.3840042 45.2974979z"/>
    </g>
  </g>
</svg>
